28.Aug.2014 13:29:19    |    Reset log file
28.Aug.2014 13:29:19    |    Creating window objects...
28.Aug.2014 13:29:19    |    Initializing data...
28.Aug.2014 13:29:19    |    Phase "Data existance checks"...
28.Aug.2014 13:29:19    |    Phase "reading settings"...
28.Aug.2014 13:29:19    |    Reading settings with also_implement=true
28.Aug.2014 13:29:19    |    Phase "Loading startup theme"...
28.Aug.2014 13:29:19    |    Loading default theme "Modern Look"...
28.Aug.2014 13:29:19    |    Loading theme "Modern Look"...
28.Aug.2014 13:29:19    |    Success. Will NOT be applied from here (load_theme()).
28.Aug.2014 13:29:19    |    Phase "DoW StringList Create"...
28.Aug.2014 13:29:19    |    dow = 4 = Thursday
28.Aug.2014 13:29:19    |    Reading data...
28.Aug.2014 13:29:19    |    Phase "Creating and reading XML"...
28.Aug.2014 13:29:19    |    Phase "Converting (72) shows from XML"...
28.Aug.2014 13:29:19    |    Read data successfully!
28.Aug.2014 13:29:20    |    Applying current_theme...
28.Aug.2014 13:29:20    |    Applied (successfully?) a TFont...
28.Aug.2014 13:29:20    |    Applied theme "Modern Look" successfully!
28.Aug.2014 13:29:20    |    Getting initial show (for the info to be shown); searching yesterday...
28.Aug.2014 13:29:20    |    Finally got s[x=11] = "The Middle"
28.Aug.2014 13:29:20    |    Gettings daily show list...
28.Aug.2014 13:29:20    |    Sorting shows...
28.Aug.2014 13:29:20    |    Getting stats...
28.Aug.2014 13:29:20    |    Refreshing...
28.Aug.2014 13:29:20    |    Refreshed. Showing 22 of 72 shows...
28.Aug.2014 13:29:20    |    Refreshing info for show "The Middle"...
28.Aug.2014 13:29:20    |    Successfully initialized program!
28.Aug.2014 13:29:22    |    Gettings daily show list...
28.Aug.2014 13:29:22    |    Sorting shows...
28.Aug.2014 13:29:22    |    Getting stats...
28.Aug.2014 13:29:22    |    Refreshing...
28.Aug.2014 13:29:22    |    Refreshed. Showing 72 of 72 shows...
28.Aug.2014 13:29:37    |    Refreshing info for show "The Playboy Club"...
28.Aug.2014 13:29:52    |    Refreshing info for show "Terra Nova"...
28.Aug.2014 13:29:56    |    Refreshing info for show "18 to Life"...
